C:\College\VVSS\lab04\ProiectSalariati\src\test\java\salariati\test\BVATest.java
C:\College\VVSS\lab04\ProiectSalariati\src\test\java\salariati\test\WhiteBox.java
C:\College\VVSS\lab04\ProiectSalariati\src\test\java\salariati\test\EmployeeFieldsTest.java
C:\College\VVSS\lab04\ProiectSalariati\src\test\java\salariati\test\AddEmployeeTest.java
C:\College\VVSS\lab04\ProiectSalariati\src\test\java\salariati\test\ECPTest.java
